Chapter 2 Introduction to R | R for social science and business analytics
…
In base R, the corresponding functions are read.csv() and read.table().

Data can also be imported into R from most external file formats (SAS, SPSS, Stata, Excel, etc.) using the tidyverse packages readxl and haven, or the foreign package in traditional R.

Note that you can click on a data frame’s name in RStudio’s Environment pane. That will open the data frame in a window, similar to SPSS’s data view.

# Normally we create data frames by importing data from external files, for
# example csv files.
data <- read_csv("./data/data.csv")

# View the result.
data

## # A tibble: 1,000 × 5
##    1. Il tuo anno di nascita è..…¹ 2. Il tuo genere è..…² 4. Sei nato/a in Ita…³
##                              <dbl> <chr>                  <chr>                 
##  1                            1994 Uomo                   Sì                    
##  2                            1968 Donna                  No                    
##  3                            1969 Uomo                   Sì                    
##  4                            1964 Uomo                   Sì                    
##  5                            1971 Uomo                   Sì                    
##  6                            1961 Preferisco non rispon… Sì                    
##  7                            1993 Donna                  Sì                    
##  8                            1981 Uomo                   Sì                    
##  9                            1979 Donna                  Sì                    
## 10                            1971 Uomo                   Sì                    
## # ℹ 990 more rows
## # ℹ abbreviated names: ¹​`1. Il tuo anno di nascita è...`,
## #   ²​`2. Il tuo genere è...`, ³​`4. Sei nato/a in Italia?`
## # ℹ 2 more variables:
## #   `11. Il tuo ultimo titolo di studi conseguito è...` <chr>, company <chr>
…
