Chapter 4 Data visualization | R for social science and business analytics
…
Note that there is a lot of overplotting: many of those dots represent multiple data points (what makes us suspicious about this is that points are too neatly arranged as in a grid). Indeed, for each unique combination of age and work.exp.y there are multiple data points (i.e. multiple respondents):

data |> 
  group_by(age, work.exp.y) |> 
  count() |> 
  arrange(desc(n))

## # A tibble: 530 × 3
## # Groups:   age, work.exp.y
## #   [530]
##      age work.exp.y     n
##    <dbl>      <dbl> <int>
##  1    51         30     7
##  2    53         32     7
##  3    54         32     7
##  4    56         35     7
##  5    30          2     6
##  6    42         15     6
##  7    49         22     6
##  8    56         30     6
##  9    57         33     6
## 10    57         35     6
## # ℹ 520 more rows
…
