Chapter 3 Data wrangling and descriptive statistics | R for social science and business analytics
…
Let’s start by loading packages, clearing the workspace, and loading the data from external source.

# Load packages
library(tidyverse)
library(skimr)
library(janitor)

# Clear the workspace
rm(list = ls())

# Let's read the data in as a tibble data frame.
(data <- read_csv("./data/data.csv"))

## # A tibble: 1,000 × 5
##    1. Il tuo anno di nascita è..…¹ 2. Il tuo genere è..…² 4. Sei nato/a in Ita…³
##                              <dbl> <chr>                  <chr>                 
##  1                            1994 Uomo                   Sì                    
##  2                            1968 Donna                  No                    
##  3                            1969 Uomo                   Sì                    
##  4                            1964 Uomo                   Sì                    
##  5                            1971 Uomo                   Sì                    
##  6                            1961 Preferisco non rispon… Sì                    
##  7                            1993 Donna                  Sì                    
##  8                            1981 Uomo                   Sì                    
##  9                            1979 Donna                  Sì                    
## 10                            1971 Uomo                   Sì                    
## # ℹ 990 more rows
## # ℹ abbreviated names: ¹​`1. Il tuo anno di nascita è...`,
## #   ²​`2. Il tuo genere è...`, ³​`4. Sei nato/a in Italia?`
## # ℹ 2 more variables:
## #   `11. Il tuo ultimo titolo di studi conseguito è...` <chr>, company <chr>
…
Renaming variables (i.e., data columns).

Selecting variables (i.e., subsetting a data frame’s columns).

Pulling one variable out of the data frame.

# Give better names to the variables: by variable name.
data |> 
  rename(
    birth.y = `1. Il tuo anno di nascita è...`,
    gender = `2. Il tuo genere è...`
  )

## # A tibble: 1,000 × 5
##    birth.y gender          4. Sei nato/a in Ita…¹ 11. Il tuo ultimo ti…² company
##      <dbl> <chr>           <chr>                  <chr>                  <chr>  
##  1    1994 Uomo            Sì                     Master post-laurea     My Veg…
##  2    1968 Donna           No                     Laurea                 Urban …
##  3    1969 Uomo            Sì                     Diploma di scuola sup… Office…
##  4    1964 Uomo            Sì                     Diploma di scuola sup… Raven  
##  5    1971 Uomo            Sì                     Diploma di scuola sup… Fix Gu…
##  6    1961 Preferisco non… Sì                     Laurea                 Office…
##  7    1993 Donna           Sì                     Scuola di specializza… House …
##  8    1981 Uomo            Sì                     Laurea                 Satan'…
##  9    1979 Donna           Sì                     Laurea                 Fruity…
## 10    1971 Uomo            Sì                     Diploma di scuola sup… Coal K…
## # ℹ 990 more rows
## # ℹ abbreviated names: ¹​`4. Sei nato/a in Italia?`,
## #   ²​`11. Il tuo ultimo titolo di studi conseguito è...`

# Give better names to the variables: by variable position.
data |> 
  rename(
    birth.y = 1,
    gender = 2
  )

## # A tibble: 1,000 × 5
##    birth.y gender          4. Sei nato/a in Ita…¹ 11. Il tuo ultimo ti…² company
##      <dbl> <chr>           <chr>                  <chr>                  <chr>  
##  1    1994 Uomo            Sì                     Master post-laurea     My Veg…
##  2    1968 Donna           No                     Laurea                 Urban …
##  3    1969 Uomo            Sì                     Diploma di scuola sup… Office…
##  4    1964 Uomo            Sì                     Diploma di scuola sup… Raven  
##  5    1971 Uomo            Sì                     Diploma di scuola sup… Fix Gu…
##  6    1961 Preferisco non… Sì                     Laurea                 Office…
##  7    1993 Donna           Sì                     Scuola di specializza… House …
##  8    1981 Uomo            Sì                     Laurea                 Satan'…
##  9    1979 Donna           Sì                     Laurea                 Fruity…
## 10    1971 Uomo            Sì                     Diploma di scuola sup… Coal K…
## # ℹ 990 more rows
## # ℹ abbreviated names: ¹​`4. Sei nato/a in Italia?`,
## #   ²​`11. Il tuo ultimo titolo di studi conseguito è...`

# Rename all or a collection of variables with a function: .x represents each
# variable name
data |> 
  rename_with(~ toupper(.x))

## # A tibble: 1,000 × 5
##    1. IL TUO ANNO DI NASCITA È..…¹ 2. IL TUO GENERE È..…² 4. SEI NATO/A IN ITA…³
##                              <dbl> <chr>                  <chr>                 
##  1                            1994 Uomo                   Sì                    
##  2                            1968 Donna                  No                    
##  3                            1969 Uomo                   Sì                    
##  4                            1964 Uomo                   Sì                    
##  5                            1971 Uomo                   Sì                    
##  6                            1961 Preferisco non rispon… Sì                    
##  7                            1993 Donna                  Sì                    
##  8                            1981 Uomo                   Sì                    
##  9                            1979 Donna                  Sì                    
## 10                            1971 Uomo                   Sì                    
## # ℹ 990 more rows
## # ℹ abbreviated names: ¹​`1. IL TUO ANNO DI NASCITA È...`,
## #   ²​`2. IL TUO GENERE È...`, ³​`4. SEI NATO/A IN ITALIA?`
## # ℹ 2 more variables:
## #   `11. IL TUO ULTIMO TITOLO DI STUDI CONSEGUITO È...` <chr>, COMPANY <chr>

# Final names 
data <- data |> 
  rename(
    birth.y = `1. Il tuo anno di nascita è...`,
    gender = `2. Il tuo genere è...`,
    nato.it = `4. Sei nato/a in Italia?`,
    edu = `11. Il tuo ultimo titolo di studi conseguito è...`
  )
data

## # A tibble: 1,000 × 5
##    birth.y gender                    nato.it edu                         company
##      <dbl> <chr>                     <chr>   <chr>                       <chr>  
##  1    1994 Uomo                      Sì      Master post-laurea          My Veg…
##  2    1968 Donna                     No      Laurea                      Urban …
##  3    1969 Uomo                      Sì      Diploma di scuola superiore Office…
##  4    1964 Uomo                      Sì      Diploma di scuola superiore Raven  
##  5    1971 Uomo                      Sì      Diploma di scuola superiore Fix Gu…
##  6    1961 Preferisco non rispondere Sì      Laurea                      Office…
##  7    1993 Donna                     Sì      Scuola di specializzazione… House …
##  8    1981 Uomo                      Sì      Laurea                      Satan'…
##  9    1979 Donna                     Sì      Laurea                      Fruity…
## 10    1971 Uomo                      Sì      Diploma di scuola superiore Coal K…
## # ℹ 990 more rows

# Subset to specific variables of interest.
data |> 
  select(gender, edu)

## # A tibble: 1,000 × 2
##    gender                    edu                                   
##    <chr>                     <chr>                                 
##  1 Uomo                      Master post-laurea                    
##  2 Donna                     Laurea                                
##  3 Uomo                      Diploma di scuola superiore           
##  4 Uomo                      Diploma di scuola superiore           
##  5 Uomo                      Diploma di scuola superiore           
##  6 Preferisco non rispondere Laurea                                
##  7 Donna                     Scuola di specializzazione post-laurea
##  8 Uomo                      Laurea                                
##  9 Donna                     Laurea                                
## 10 Uomo                      Diploma di scuola superiore           
## # ℹ 990 more rows

# Remove certain variables
data |> 
  select(-gender)

## # A tibble: 1,000 × 4
##    birth.y nato.it edu                                    company             
##      <dbl> <chr>   <chr>                                  <chr>               
##  1    1994 Sì      Master post-laurea                     My Vegetarian Dinner
##  2    1968 No      Laurea                                 Urban Gallery       
##  3    1969 Sì      Diploma di scuola superiore            Office Tile         
##  4    1964 Sì      Diploma di scuola superiore            Raven               
##  5    1971 Sì      Diploma di scuola superiore            Fix Guru            
##  6    1961 Sì      Laurea                                 Office Brush        
##  7    1993 Sì      Scuola di specializzazione post-laurea House Brush         
##  8    1981 Sì      Laurea                                 Satan's Sister      
##  9    1979 Sì      Laurea                                 FruityFlix          
## 10    1971 Sì      Diploma di scuola superiore            Coal Kings          
## # ℹ 990 more rows

data |> 
  select(-c(gender, edu))

## # A tibble: 1,000 × 3
##    birth.y nato.it company             
##      <dbl> <chr>   <chr>               
##  1    1994 Sì      My Vegetarian Dinner
##  2    1968 No      Urban Gallery       
##  3    1969 Sì      Office Tile         
##  4    1964 Sì      Raven               
##  5    1971 Sì      Fix Guru            
##  6    1961 Sì      Office Brush        
##  7    1993 Sì      House Brush         
##  8    1981 Sì      Satan's Sister      
##  9    1979 Sì      FruityFlix          
## 10    1971 Sì      Coal Kings          
## # ℹ 990 more rows

# Reorder variables.
data |> 
  select(company, edu, gender)

## # A tibble: 1,000 × 3
##    company              edu                                    gender           
##    <chr>                <chr>                                  <chr>            
##  1 My Vegetarian Dinner Master post-laurea                     Uomo             
##  2 Urban Gallery        Laurea                                 Donna            
##  3 Office Tile          Diploma di scuola superiore            Uomo             
##  4 Raven                Diploma di scuola superiore            Uomo             
##  5 Fix Guru             Diploma di scuola superiore            Uomo             
##  6 Office Brush         Laurea                                 Preferisco non r…
##  7 House Brush          Scuola di specializzazione post-laurea Donna            
##  8 Satan's Sister       Laurea                                 Uomo             
##  9 FruityFlix           Laurea                                 Donna            
## 10 Coal Kings           Diploma di scuola superiore            Uomo             
## # ℹ 990 more rows

# Subset/reorder while renaming
data |> 
  select(company2 = company, education = edu)

## # A tibble: 1,000 × 2
##    company2             education                             
##    <chr>                <chr>                                 
##  1 My Vegetarian Dinner Master post-laurea                    
##  2 Urban Gallery        Laurea                                
##  3 Office Tile          Diploma di scuola superiore           
##  4 Raven                Diploma di scuola superiore           
##  5 Fix Guru             Diploma di scuola superiore           
##  6 Office Brush         Laurea                                
##  7 House Brush          Scuola di specializzazione post-laurea
##  8 Satan's Sister       Laurea                                
##  9 FruityFlix           Laurea                                
## 10 Coal Kings           Diploma di scuola superiore           
## # ℹ 990 more rows

# Select offers very flexible syntax to indicate variable names, for example:
# Select variables whose name ends with "y".
data |> 
  select(ends_with("y"))

## # A tibble: 1,000 × 2
##    birth.y company             
##      <dbl> <chr>               
##  1    1994 My Vegetarian Dinner
##  2    1968 Urban Gallery       
##  3    1969 Office Tile         
##  4    1964 Raven               
##  5    1971 Fix Guru            
##  6    1961 Office Brush        
##  7    1993 House Brush         
##  8    1981 Satan's Sister      
##  9    1979 FruityFlix          
## 10    1971 Coal Kings          
## # ℹ 990 more rows

# Select variables which are numeric.
data |> 
  select(where(is.numeric))

## # A tibble: 1,000 × 1
##    birth.y
##      <dbl>
##  1    1994
##  2    1968
##  3    1969
##  4    1964
##  5    1971
##  6    1961
##  7    1993
##  8    1981
##  9    1979
## 10    1971
## # ℹ 990 more rows

# See ?select for all options.

# Note the difference between these two types of subsetting.

# Option 1: keeping the data frame structure
data |> 
  select(birth.y)

## # A tibble: 1,000 × 1
##    birth.y
##      <dbl>
##  1    1994
##  2    1968
##  3    1969
##  4    1964
##  5    1971
##  6    1961
##  7    1993
##  8    1981
##  9    1979
## 10    1971
## # ℹ 990 more rows

# This is the same as
data["birth.y"]

## # A tibble: 1,000 × 1
##    birth.y
##      <dbl>
##  1    1994
##  2    1968
##  3    1969
##  4    1964
##  5    1971
##  6    1961
##  7    1993
##  8    1981
##  9    1979
## 10    1971
## # ℹ 990 more rows
…
Reordering factor levels.

Recoding factors: combining multiple levels into one.

# Create new variable from existing continuous variable.
data <- data |> 
  mutate(
    age = 2023 - birth.y
  )

# See result.
data |> 
  select(birth.y, age)

## # A tibble: 1,000 × 2
##    birth.y   age
##      <dbl> <dbl>
##  1    1994    29
##  2    1968    55
##  3    1969    54
##  4    1964    59
##  5    1971    52
##  6    1961    62
##  7    1993    30
##  8    1981    42
##  9    1979    44
## 10    1971    52
## # ℹ 990 more rows
…
# View. Note the new variable is listed as <fct>.
data |> 
  select(birth.y, age, gen1)

## # A tibble: 1,000 × 3
##    birth.y   age gen1   
##      <dbl> <dbl> <fct>  
##  1    1994    29 (27,43]
##  2    1968    55 (43,58]
##  3    1969    54 (43,58]
##  4    1964    59 (58,80]
##  5    1971    52 (43,58]
##  6    1961    62 (58,80]
##  7    1993    30 (27,43]
##  8    1981    42 (27,43]
##  9    1979    44 (43,58]
## 10    1971    52 (43,58]
## # ℹ 990 more rows

# Recode factor: new labels for generations
data <- data |> 
  mutate(
    gen = fct_recode(gen1, `gen z` = "(13,27]", `millennials` = "(27,43]", 
                     `gen x` = "(43,58]", `baby boomers` = "(58,80]")
  )

# View.
data |> 
  select(age, gen1, gen)

## # A tibble: 1,000 × 3
##      age gen1    gen         
##    <dbl> <fct>   <fct>       
##  1    29 (27,43] millennials 
##  2    55 (43,58] gen x       
##  3    54 (43,58] gen x       
##  4    59 (58,80] baby boomers
##  5    52 (43,58] gen x       
##  6    62 (58,80] baby boomers
##  7    30 (27,43] millennials 
##  8    42 (27,43] millennials 
##  9    44 (43,58] gen x       
## 10    52 (43,58] gen x       
## # ℹ 990 more rows
…
# Recode age in a different way: 10-year age brackets.
data <- data |> 
  mutate(
    age.br = cut(age, c(20, 30, 40, 50, 60, 70, 80))
  )

# View.
data |> 
  select(age, age.br)

## # A tibble: 1,000 × 2
##      age age.br 
##    <dbl> <fct>  
##  1    29 (20,30]
##  2    55 (50,60]
##  3    54 (50,60]
##  4    59 (50,60]
##  5    52 (50,60]
##  6    62 (60,70]
##  7    30 (20,30]
##  8    42 (40,50]
##  9    44 (40,50]
## 10    52 (50,60]
## # ℹ 990 more rows
…
# View results.
data |> 
  select(age, age.br, age.br.2)

## # A tibble: 1,000 × 3
##      age age.br  age.br.2
##    <dbl> <fct>   <fct>   
##  1    29 (20,30] 21-30   
##  2    55 (50,60] 51-60   
##  3    54 (50,60] 51-60   
##  4    59 (50,60] 51-60   
##  5    52 (50,60] 51-60   
##  6    62 (60,70] 61-70   
##  7    30 (20,30] 21-30   
##  8    42 (40,50] 41-50   
##  9    44 (40,50] 41-50   
## 10    52 (50,60] 51-60   
## # ℹ 990 more rows
# Collapse 10-year brackets into 20-year.
data <- data |> 
  mutate(
    age.br.3 = fct_collapse(age.br.2,
      `21-40` = c("21-30", "31-40"),
      `41-60` = c("41-50", "51-60"),
      `61-80` = c("61-70", "71-80")
    )
  )

# View results.
data |> 
  select(age, age.br.2, age.br.3)

## # A tibble: 1,000 × 3
##      age age.br.2 age.br.3
##    <dbl> <fct>    <fct>   
##  1    29 21-30    21-40   
##  2    55 51-60    41-60   
##  3    54 51-60    41-60   
##  4    59 51-60    41-60   
##  5    52 51-60    41-60   
##  6    62 61-70    61-80   
##  7    30 21-30    21-40   
##  8    42 41-50    41-60   
##  9    44 41-50    41-60   
## 10    52 51-60    41-60   
## # ℹ 990 more rows
…
3.3 Filtering and rearranging cases

The filter() verb.

Filtering cases (i.e., data rows) based on logical conditions with relational operators.

Combining multiple logical conditions via intersection (&) or union (|).

Rearranging data rows.

# Respondents whose age is exactly 40.
data |> 
  filter(age == 40)

## # A tibble: 26 × 8
##    birth.y   age gen         age.br gender nato.it edu         company         
##      <dbl> <dbl> <fct>       <fct>  <fct>  <chr>   <fct>       <chr>           
##  1    1983    40 millennials 31-40  Uomo   Sì      Altro       Fix Guru        
##  2    1983    40 millennials 31-40  Uomo   Sì      Superiori   Bloom Marketing 
##  3    1983    40 millennials 31-40  Donna  Sì      Post-laurea Urban Philosophy
##  4    1983    40 millennials 31-40  Donna  Sì      Laurea      Wood Works      
##  5    1983    40 millennials 31-40  Uomo   Sì      Laurea      Office Tile     
##  6    1983    40 millennials 31-40  Uomo   Sì      Laurea      The Spice Route 
##  7    1983    40 millennials 31-40  Uomo   Sì      Superiori   The Zone        
##  8    1983    40 millennials 31-40  Uomo   Sì      Superiori   Coal Kings      
##  9    1983    40 millennials 31-40  Uomo   <NA>    Altro       FruityFlix      
## 10    1983    40 millennials 31-40  Donna  Sì      Superiori   Raven           
## # ℹ 16 more rows

# With education = Laurea
data |> 
  filter(edu == "Laurea")

## # A tibble: 359 × 8
##    birth.y   age gen          age.br gender nato.it edu    company       
##      <dbl> <dbl> <fct>        <fct>  <fct>  <chr>   <fct>  <chr>         
##  1    1968    55 gen x        51-60  Donna  No      Laurea Urban Gallery 
##  2    1961    62 baby boomers 61-70  NR     Sì      Laurea Office Brush  
##  3    1981    42 millennials  41-50  Uomo   Sì      Laurea Satan's Sister
##  4    1979    44 gen x        41-50  Donna  Sì      Laurea FruityFlix    
##  5    1975    48 gen x        41-50  Donna  Sì      Laurea Coal Kings    
##  6    1978    45 gen x        41-50  Uomo   Sì      Laurea The Auto DNA  
##  7    1972    51 gen x        51-60  Uomo   Sì      Laurea Wood Works    
##  8    1987    36 millennials  31-40  Donna  Sì      Laurea Garden Store  
##  9    1984    39 millennials  31-40  Uomo   Sì      Laurea FruityFlix    
## 10    1981    42 millennials  41-50  Uomo   Sì      Laurea Wood Works    
## # ℹ 349 more rows
…
